G75*
G70*
%OFA0B0*%
%FSLAX24Y24*%
%IPPOS*%
%LPD*%
%AMOC8*
5,1,8,0,0,1.08239X$1,22.5*
%
%ADD10C,0.0000*%
%ADD11C,0.0070*%
%ADD12C,0.0669*%
%ADD13C,0.0740*%
%ADD14OC8,0.0520*%
%ADD15R,0.0740X0.0740*%
%ADD16OC8,0.0740*%
%ADD17R,0.0531X0.0531*%
%ADD18C,0.0160*%
%ADD19C,0.0120*%
D10*
X011841Y017730D02*
X011843Y017782D01*
X011849Y017834D01*
X011859Y017885D01*
X011872Y017935D01*
X011890Y017985D01*
X011911Y018032D01*
X011935Y018078D01*
X011964Y018122D01*
X011995Y018164D01*
X012029Y018203D01*
X012066Y018240D01*
X012106Y018273D01*
X012149Y018304D01*
X012193Y018331D01*
X012239Y018355D01*
X012288Y018375D01*
X012337Y018391D01*
X012388Y018404D01*
X012439Y018413D01*
X012491Y018418D01*
X012543Y018419D01*
X012595Y018416D01*
X012647Y018409D01*
X012698Y018398D01*
X012748Y018384D01*
X012797Y018365D01*
X012844Y018343D01*
X012889Y018318D01*
X012933Y018289D01*
X012974Y018257D01*
X013013Y018222D01*
X013048Y018184D01*
X013081Y018143D01*
X013111Y018101D01*
X013137Y018056D01*
X013160Y018009D01*
X013179Y017960D01*
X013195Y017910D01*
X013207Y017860D01*
X013215Y017808D01*
X013219Y017756D01*
X013219Y017704D01*
X013215Y017652D01*
X013207Y017600D01*
X013195Y017550D01*
X013179Y017500D01*
X013160Y017451D01*
X013137Y017404D01*
X013111Y017359D01*
X013081Y017317D01*
X013048Y017276D01*
X013013Y017238D01*
X012974Y017203D01*
X012933Y017171D01*
X012889Y017142D01*
X012844Y017117D01*
X012797Y017095D01*
X012748Y017076D01*
X012698Y017062D01*
X012647Y017051D01*
X012595Y017044D01*
X012543Y017041D01*
X012491Y017042D01*
X012439Y017047D01*
X012388Y017056D01*
X012337Y017069D01*
X012288Y017085D01*
X012239Y017105D01*
X012193Y017129D01*
X012149Y017156D01*
X012106Y017187D01*
X012066Y017220D01*
X012029Y017257D01*
X011995Y017296D01*
X011964Y017338D01*
X011935Y017382D01*
X011911Y017428D01*
X011890Y017475D01*
X011872Y017525D01*
X011859Y017575D01*
X011849Y017626D01*
X011843Y017678D01*
X011841Y017730D01*
X002996Y021030D02*
X002998Y021092D01*
X003004Y021155D01*
X003014Y021216D01*
X003028Y021277D01*
X003045Y021337D01*
X003066Y021396D01*
X003092Y021453D01*
X003120Y021508D01*
X003152Y021562D01*
X003188Y021613D01*
X003226Y021663D01*
X003268Y021709D01*
X003312Y021753D01*
X003360Y021794D01*
X003409Y021832D01*
X003461Y021866D01*
X003515Y021897D01*
X003571Y021925D01*
X003629Y021949D01*
X003688Y021970D01*
X003748Y021986D01*
X003809Y021999D01*
X003871Y022008D01*
X003933Y022013D01*
X003996Y022014D01*
X004058Y022011D01*
X004120Y022004D01*
X004182Y021993D01*
X004242Y021978D01*
X004302Y021960D01*
X004360Y021938D01*
X004417Y021912D01*
X004472Y021882D01*
X004525Y021849D01*
X004576Y021813D01*
X004624Y021774D01*
X004670Y021731D01*
X004713Y021686D01*
X004753Y021638D01*
X004790Y021588D01*
X004824Y021535D01*
X004855Y021481D01*
X004881Y021425D01*
X004905Y021367D01*
X004924Y021307D01*
X004940Y021247D01*
X004952Y021185D01*
X004960Y021124D01*
X004964Y021061D01*
X004964Y020999D01*
X004960Y020936D01*
X004952Y020875D01*
X004940Y020813D01*
X004924Y020753D01*
X004905Y020693D01*
X004881Y020635D01*
X004855Y020579D01*
X004824Y020525D01*
X004790Y020472D01*
X004753Y020422D01*
X004713Y020374D01*
X004670Y020329D01*
X004624Y020286D01*
X004576Y020247D01*
X004525Y020211D01*
X004472Y020178D01*
X004417Y020148D01*
X004360Y020122D01*
X004302Y020100D01*
X004242Y020082D01*
X004182Y020067D01*
X004120Y020056D01*
X004058Y020049D01*
X003996Y020046D01*
X003933Y020047D01*
X003871Y020052D01*
X003809Y020061D01*
X003748Y020074D01*
X003688Y020090D01*
X003629Y020111D01*
X003571Y020135D01*
X003515Y020163D01*
X003461Y020194D01*
X003409Y020228D01*
X003360Y020266D01*
X003312Y020307D01*
X003268Y020351D01*
X003226Y020397D01*
X003188Y020447D01*
X003152Y020498D01*
X003120Y020552D01*
X003092Y020607D01*
X003066Y020664D01*
X003045Y020723D01*
X003028Y020783D01*
X003014Y020844D01*
X003004Y020905D01*
X002998Y020968D01*
X002996Y021030D01*
X011841Y025730D02*
X011843Y025782D01*
X011849Y025834D01*
X011859Y025885D01*
X011872Y025935D01*
X011890Y025985D01*
X011911Y026032D01*
X011935Y026078D01*
X011964Y026122D01*
X011995Y026164D01*
X012029Y026203D01*
X012066Y026240D01*
X012106Y026273D01*
X012149Y026304D01*
X012193Y026331D01*
X012239Y026355D01*
X012288Y026375D01*
X012337Y026391D01*
X012388Y026404D01*
X012439Y026413D01*
X012491Y026418D01*
X012543Y026419D01*
X012595Y026416D01*
X012647Y026409D01*
X012698Y026398D01*
X012748Y026384D01*
X012797Y026365D01*
X012844Y026343D01*
X012889Y026318D01*
X012933Y026289D01*
X012974Y026257D01*
X013013Y026222D01*
X013048Y026184D01*
X013081Y026143D01*
X013111Y026101D01*
X013137Y026056D01*
X013160Y026009D01*
X013179Y025960D01*
X013195Y025910D01*
X013207Y025860D01*
X013215Y025808D01*
X013219Y025756D01*
X013219Y025704D01*
X013215Y025652D01*
X013207Y025600D01*
X013195Y025550D01*
X013179Y025500D01*
X013160Y025451D01*
X013137Y025404D01*
X013111Y025359D01*
X013081Y025317D01*
X013048Y025276D01*
X013013Y025238D01*
X012974Y025203D01*
X012933Y025171D01*
X012889Y025142D01*
X012844Y025117D01*
X012797Y025095D01*
X012748Y025076D01*
X012698Y025062D01*
X012647Y025051D01*
X012595Y025044D01*
X012543Y025041D01*
X012491Y025042D01*
X012439Y025047D01*
X012388Y025056D01*
X012337Y025069D01*
X012288Y025085D01*
X012239Y025105D01*
X012193Y025129D01*
X012149Y025156D01*
X012106Y025187D01*
X012066Y025220D01*
X012029Y025257D01*
X011995Y025296D01*
X011964Y025338D01*
X011935Y025382D01*
X011911Y025428D01*
X011890Y025475D01*
X011872Y025525D01*
X011859Y025575D01*
X011849Y025626D01*
X011843Y025678D01*
X011841Y025730D01*
X020346Y038730D02*
X020348Y038792D01*
X020354Y038855D01*
X020364Y038916D01*
X020378Y038977D01*
X020395Y039037D01*
X020416Y039096D01*
X020442Y039153D01*
X020470Y039208D01*
X020502Y039262D01*
X020538Y039313D01*
X020576Y039363D01*
X020618Y039409D01*
X020662Y039453D01*
X020710Y039494D01*
X020759Y039532D01*
X020811Y039566D01*
X020865Y039597D01*
X020921Y039625D01*
X020979Y039649D01*
X021038Y039670D01*
X021098Y039686D01*
X021159Y039699D01*
X021221Y039708D01*
X021283Y039713D01*
X021346Y039714D01*
X021408Y039711D01*
X021470Y039704D01*
X021532Y039693D01*
X021592Y039678D01*
X021652Y039660D01*
X021710Y039638D01*
X021767Y039612D01*
X021822Y039582D01*
X021875Y039549D01*
X021926Y039513D01*
X021974Y039474D01*
X022020Y039431D01*
X022063Y039386D01*
X022103Y039338D01*
X022140Y039288D01*
X022174Y039235D01*
X022205Y039181D01*
X022231Y039125D01*
X022255Y039067D01*
X022274Y039007D01*
X022290Y038947D01*
X022302Y038885D01*
X022310Y038824D01*
X022314Y038761D01*
X022314Y038699D01*
X022310Y038636D01*
X022302Y038575D01*
X022290Y038513D01*
X022274Y038453D01*
X022255Y038393D01*
X022231Y038335D01*
X022205Y038279D01*
X022174Y038225D01*
X022140Y038172D01*
X022103Y038122D01*
X022063Y038074D01*
X022020Y038029D01*
X021974Y037986D01*
X021926Y037947D01*
X021875Y037911D01*
X021822Y037878D01*
X021767Y037848D01*
X021710Y037822D01*
X021652Y037800D01*
X021592Y037782D01*
X021532Y037767D01*
X021470Y037756D01*
X021408Y037749D01*
X021346Y037746D01*
X021283Y037747D01*
X021221Y037752D01*
X021159Y037761D01*
X021098Y037774D01*
X021038Y037790D01*
X020979Y037811D01*
X020921Y037835D01*
X020865Y037863D01*
X020811Y037894D01*
X020759Y037928D01*
X020710Y037966D01*
X020662Y038007D01*
X020618Y038051D01*
X020576Y038097D01*
X020538Y038147D01*
X020502Y038198D01*
X020470Y038252D01*
X020442Y038307D01*
X020416Y038364D01*
X020395Y038423D01*
X020378Y038483D01*
X020364Y038544D01*
X020354Y038605D01*
X020348Y038668D01*
X020346Y038730D01*
X037746Y021030D02*
X037748Y021092D01*
X037754Y021155D01*
X037764Y021216D01*
X037778Y021277D01*
X037795Y021337D01*
X037816Y021396D01*
X037842Y021453D01*
X037870Y021508D01*
X037902Y021562D01*
X037938Y021613D01*
X037976Y021663D01*
X038018Y021709D01*
X038062Y021753D01*
X038110Y021794D01*
X038159Y021832D01*
X038211Y021866D01*
X038265Y021897D01*
X038321Y021925D01*
X038379Y021949D01*
X038438Y021970D01*
X038498Y021986D01*
X038559Y021999D01*
X038621Y022008D01*
X038683Y022013D01*
X038746Y022014D01*
X038808Y022011D01*
X038870Y022004D01*
X038932Y021993D01*
X038992Y021978D01*
X039052Y021960D01*
X039110Y021938D01*
X039167Y021912D01*
X039222Y021882D01*
X039275Y021849D01*
X039326Y021813D01*
X039374Y021774D01*
X039420Y021731D01*
X039463Y021686D01*
X039503Y021638D01*
X039540Y021588D01*
X039574Y021535D01*
X039605Y021481D01*
X039631Y021425D01*
X039655Y021367D01*
X039674Y021307D01*
X039690Y021247D01*
X039702Y021185D01*
X039710Y021124D01*
X039714Y021061D01*
X039714Y020999D01*
X039710Y020936D01*
X039702Y020875D01*
X039690Y020813D01*
X039674Y020753D01*
X039655Y020693D01*
X039631Y020635D01*
X039605Y020579D01*
X039574Y020525D01*
X039540Y020472D01*
X039503Y020422D01*
X039463Y020374D01*
X039420Y020329D01*
X039374Y020286D01*
X039326Y020247D01*
X039275Y020211D01*
X039222Y020178D01*
X039167Y020148D01*
X039110Y020122D01*
X039052Y020100D01*
X038992Y020082D01*
X038932Y020067D01*
X038870Y020056D01*
X038808Y020049D01*
X038746Y020046D01*
X038683Y020047D01*
X038621Y020052D01*
X038559Y020061D01*
X038498Y020074D01*
X038438Y020090D01*
X038379Y020111D01*
X038321Y020135D01*
X038265Y020163D01*
X038211Y020194D01*
X038159Y020228D01*
X038110Y020266D01*
X038062Y020307D01*
X038018Y020351D01*
X037976Y020397D01*
X037938Y020447D01*
X037902Y020498D01*
X037870Y020552D01*
X037842Y020607D01*
X037816Y020664D01*
X037795Y020723D01*
X037778Y020783D01*
X037764Y020844D01*
X037754Y020905D01*
X037748Y020968D01*
X037746Y021030D01*
X020246Y004030D02*
X020248Y004092D01*
X020254Y004155D01*
X020264Y004216D01*
X020278Y004277D01*
X020295Y004337D01*
X020316Y004396D01*
X020342Y004453D01*
X020370Y004508D01*
X020402Y004562D01*
X020438Y004613D01*
X020476Y004663D01*
X020518Y004709D01*
X020562Y004753D01*
X020610Y004794D01*
X020659Y004832D01*
X020711Y004866D01*
X020765Y004897D01*
X020821Y004925D01*
X020879Y004949D01*
X020938Y004970D01*
X020998Y004986D01*
X021059Y004999D01*
X021121Y005008D01*
X021183Y005013D01*
X021246Y005014D01*
X021308Y005011D01*
X021370Y005004D01*
X021432Y004993D01*
X021492Y004978D01*
X021552Y004960D01*
X021610Y004938D01*
X021667Y004912D01*
X021722Y004882D01*
X021775Y004849D01*
X021826Y004813D01*
X021874Y004774D01*
X021920Y004731D01*
X021963Y004686D01*
X022003Y004638D01*
X022040Y004588D01*
X022074Y004535D01*
X022105Y004481D01*
X022131Y004425D01*
X022155Y004367D01*
X022174Y004307D01*
X022190Y004247D01*
X022202Y004185D01*
X022210Y004124D01*
X022214Y004061D01*
X022214Y003999D01*
X022210Y003936D01*
X022202Y003875D01*
X022190Y003813D01*
X022174Y003753D01*
X022155Y003693D01*
X022131Y003635D01*
X022105Y003579D01*
X022074Y003525D01*
X022040Y003472D01*
X022003Y003422D01*
X021963Y003374D01*
X021920Y003329D01*
X021874Y003286D01*
X021826Y003247D01*
X021775Y003211D01*
X021722Y003178D01*
X021667Y003148D01*
X021610Y003122D01*
X021552Y003100D01*
X021492Y003082D01*
X021432Y003067D01*
X021370Y003056D01*
X021308Y003049D01*
X021246Y003046D01*
X021183Y003047D01*
X021121Y003052D01*
X021059Y003061D01*
X020998Y003074D01*
X020938Y003090D01*
X020879Y003111D01*
X020821Y003135D01*
X020765Y003163D01*
X020711Y003194D01*
X020659Y003228D01*
X020610Y003266D01*
X020562Y003307D01*
X020518Y003351D01*
X020476Y003397D01*
X020438Y003447D01*
X020402Y003498D01*
X020370Y003552D01*
X020342Y003607D01*
X020316Y003664D01*
X020295Y003723D01*
X020278Y003783D01*
X020264Y003844D01*
X020254Y003905D01*
X020248Y003968D01*
X020246Y004030D01*
D11*
X019698Y007565D02*
X019303Y007565D01*
X019171Y007697D01*
X019171Y007960D01*
X019303Y008092D01*
X019698Y008092D01*
X019698Y008356D02*
X019698Y007565D01*
X018906Y007565D02*
X018511Y007565D01*
X018379Y007697D01*
X018511Y007829D01*
X018906Y007829D01*
X018906Y007960D02*
X018906Y007565D01*
X018906Y007960D02*
X018775Y008092D01*
X018511Y008092D01*
X018115Y008092D02*
X017851Y008092D01*
X017983Y008224D02*
X017983Y007697D01*
X018115Y007565D01*
X017587Y007697D02*
X017455Y007829D01*
X017191Y007829D01*
X017059Y007960D01*
X017191Y008092D01*
X017587Y008092D01*
X017587Y007697D02*
X017455Y007565D01*
X017059Y007565D01*
X016794Y007565D02*
X016530Y007565D01*
X016399Y007697D01*
X016399Y007829D02*
X016926Y007829D01*
X016926Y007960D01*
X016794Y008092D01*
X016530Y008092D01*
X016399Y007960D01*
X016399Y007829D01*
X016399Y007565D01*
X016003Y007565D01*
X015872Y007697D01*
X016003Y007829D01*
X016399Y007829D01*
X016399Y007960D02*
X016267Y008092D01*
X016003Y008092D01*
X015607Y008092D02*
X015343Y007565D01*
X015080Y008092D01*
X014815Y008356D02*
X014288Y007829D01*
X014420Y007960D02*
X014815Y007565D01*
X014288Y007565D02*
X014288Y008356D01*
X014420Y008855D02*
X014288Y008987D01*
X014288Y009250D01*
X014420Y009382D01*
X014683Y009382D01*
X014815Y009250D01*
X014815Y008987D01*
X014683Y008855D01*
X014420Y008855D01*
X015080Y008855D02*
X015343Y008855D01*
X015211Y008855D02*
X015211Y009646D01*
X015080Y009646D01*
X015608Y009646D02*
X015739Y009646D01*
X015739Y008855D01*
X015608Y008855D02*
X015871Y008855D01*
X016136Y008987D02*
X016136Y009250D01*
X016267Y009382D01*
X016531Y009382D01*
X016663Y009250D01*
X016663Y009119D01*
X016136Y009119D01*
X016136Y008987D02*
X016267Y008855D01*
X016531Y008855D01*
X016927Y008855D02*
X016927Y009382D01*
X016927Y009119D02*
X017191Y009382D01*
X017323Y009382D01*
X018379Y009382D02*
X018643Y008855D01*
X018906Y009382D01*
X019171Y009382D02*
X019435Y009646D01*
X019435Y008855D01*
X019698Y008855D02*
X019171Y008855D01*
X019963Y008855D02*
X020095Y008855D01*
X020095Y008987D01*
X019963Y008987D01*
X019963Y008855D01*
X020359Y008987D02*
X020886Y009514D01*
X020886Y008987D01*
X020754Y008855D01*
X020491Y008855D01*
X020359Y008987D01*
X020359Y009514D01*
X020491Y009646D01*
X020754Y009646D01*
X020886Y009514D01*
X014023Y009382D02*
X013891Y009382D01*
X013628Y009119D01*
X013628Y009382D02*
X013628Y008855D01*
X013364Y008855D02*
X013232Y008987D01*
X013232Y009514D01*
X013100Y009382D02*
X013364Y009382D01*
X012835Y009250D02*
X012835Y008855D01*
X012835Y009250D02*
X012703Y009382D01*
X012308Y009382D01*
X012308Y008855D01*
X012043Y008987D02*
X012043Y009250D01*
X011912Y009382D01*
X011648Y009382D01*
X011516Y009250D01*
X011516Y008987D01*
X011648Y008855D01*
X011912Y008855D01*
X012043Y008987D01*
X011251Y008987D02*
X011120Y008855D01*
X010856Y008855D01*
X010724Y008987D01*
X010724Y009514D01*
X010856Y009646D01*
X011120Y009646D01*
X011251Y009514D01*
X010460Y009382D02*
X010196Y009382D01*
X010328Y009514D02*
X010328Y008987D01*
X010460Y008855D01*
X010196Y008487D02*
X010196Y008356D01*
X010196Y008092D02*
X010196Y007433D01*
X010064Y007301D01*
X009933Y007301D01*
X009668Y007697D02*
X009536Y007565D01*
X009141Y007565D01*
X009141Y008356D01*
X009536Y008356D01*
X009668Y008224D01*
X009668Y008092D01*
X009536Y007960D01*
X009141Y007960D01*
X009536Y007960D02*
X009668Y007829D01*
X009668Y007697D01*
X010460Y007697D02*
X010592Y007565D01*
X010988Y007565D01*
X010988Y007960D01*
X010856Y008092D01*
X010592Y008092D01*
X010592Y007829D02*
X010988Y007829D01*
X011252Y007829D02*
X011516Y008092D01*
X011648Y008092D01*
X011912Y008092D02*
X012308Y008092D01*
X012439Y007960D01*
X012439Y007565D01*
X012704Y007697D02*
X012704Y007960D01*
X012836Y008092D01*
X013099Y008092D01*
X013231Y007960D01*
X013231Y007829D01*
X012704Y007829D01*
X012704Y007697D02*
X012836Y007565D01*
X013099Y007565D01*
X011912Y007565D02*
X011912Y008092D01*
X011252Y008092D02*
X011252Y007565D01*
X010592Y007829D02*
X010460Y007697D01*
X009932Y008855D02*
X009932Y009250D01*
X009800Y009382D01*
X009536Y009382D01*
X009405Y009250D01*
X009140Y009382D02*
X009140Y008723D01*
X009008Y008591D01*
X008876Y008591D01*
X008744Y008855D02*
X009140Y008855D01*
X009405Y008855D02*
X009405Y009646D01*
X009140Y009382D02*
X008744Y009382D01*
X008613Y009250D01*
X008613Y008987D01*
X008744Y008855D01*
X008348Y008855D02*
X008085Y008855D01*
X008217Y008855D02*
X008217Y009382D01*
X008085Y009382D01*
X008217Y009646D02*
X008217Y009777D01*
X007689Y009646D02*
X007689Y008855D01*
X007820Y008855D02*
X007557Y008855D01*
X007160Y008356D02*
X007292Y008224D01*
X007292Y008092D01*
X007160Y007960D01*
X006765Y007960D01*
X006765Y007565D02*
X007160Y007565D01*
X007292Y007697D01*
X007292Y007829D01*
X007160Y007960D01*
X007160Y008356D02*
X006765Y008356D01*
X006765Y007565D01*
X007557Y007697D02*
X007689Y007565D01*
X008084Y007565D01*
X008084Y007433D02*
X007952Y007301D01*
X007820Y007301D01*
X008084Y007433D02*
X008084Y008092D01*
X007557Y008092D02*
X007557Y007697D01*
X006765Y008855D02*
X006765Y009646D01*
X007292Y009646D01*
X007557Y009646D02*
X007689Y009646D01*
X007029Y009250D02*
X006765Y009250D01*
D12*
X007230Y012030D03*
X007230Y013030D03*
X006230Y013030D03*
X006230Y012030D03*
X005230Y012030D03*
X005230Y013030D03*
X004230Y013030D03*
X004230Y012030D03*
X008230Y012030D03*
X008230Y013030D03*
X009230Y013030D03*
X009230Y012030D03*
X010230Y012030D03*
X010230Y013030D03*
X011230Y013030D03*
X011230Y012030D03*
X012230Y012030D03*
X012230Y013030D03*
X013230Y013030D03*
X013230Y012030D03*
X014230Y012030D03*
X014230Y013030D03*
X015230Y013030D03*
X015230Y012030D03*
X016230Y012030D03*
X016230Y013030D03*
X017230Y013030D03*
X017230Y012030D03*
X018230Y012030D03*
X018230Y013030D03*
X019230Y013030D03*
X019230Y012030D03*
X020230Y012030D03*
X020230Y013030D03*
X021230Y013030D03*
X021230Y012030D03*
X022230Y012030D03*
X022230Y013030D03*
X023230Y013030D03*
X023230Y012030D03*
X024230Y012030D03*
X024230Y013030D03*
X025230Y013030D03*
X025230Y012030D03*
X026230Y012030D03*
X026230Y013030D03*
X027230Y013030D03*
X027230Y012030D03*
X028230Y012030D03*
X028230Y013030D03*
X028230Y029030D03*
X028230Y030030D03*
X027230Y030030D03*
X027230Y029030D03*
X026230Y029030D03*
X026230Y030030D03*
X025230Y030030D03*
X025230Y029030D03*
X024230Y029030D03*
X024230Y030030D03*
X023230Y030030D03*
X023230Y029030D03*
X022230Y029030D03*
X022230Y030030D03*
X021230Y030030D03*
X021230Y029030D03*
X020230Y029030D03*
X020230Y030030D03*
X019230Y030030D03*
X019230Y029030D03*
X018230Y029030D03*
X018230Y030030D03*
X017230Y030030D03*
X017230Y029030D03*
X016230Y029030D03*
X016230Y030030D03*
X015230Y030030D03*
X015230Y029030D03*
X014230Y029030D03*
X014230Y030030D03*
X013230Y030030D03*
X013230Y029030D03*
X012230Y029030D03*
X012230Y030030D03*
X011230Y030030D03*
X011230Y029030D03*
X010230Y029030D03*
X010230Y030030D03*
X009230Y030030D03*
X009230Y029030D03*
X008230Y029030D03*
X008230Y030030D03*
X007230Y030030D03*
X007230Y029030D03*
X006230Y029030D03*
X006230Y030030D03*
X005230Y030030D03*
X005230Y029030D03*
X004230Y029030D03*
X004230Y030030D03*
X007630Y026230D03*
X007630Y025230D03*
X007630Y024230D03*
X007630Y023230D03*
X007630Y022230D03*
X007630Y021230D03*
X007630Y020230D03*
X007630Y019230D03*
X007630Y018230D03*
X007630Y017230D03*
D13*
X006230Y004530D03*
X006230Y005530D03*
X007230Y005530D03*
X007230Y004530D03*
X008230Y004530D03*
X008230Y005530D03*
X009230Y005530D03*
X009230Y004530D03*
X010230Y004530D03*
X010230Y005530D03*
X011230Y005530D03*
X011230Y004530D03*
X012230Y004530D03*
X012230Y005530D03*
X012230Y006530D03*
X011230Y006530D03*
X010230Y006530D03*
X009230Y006530D03*
X008230Y006530D03*
X007230Y006530D03*
X006230Y006530D03*
X013230Y006530D03*
X014230Y006530D03*
X015230Y006530D03*
X015230Y005530D03*
X015230Y004530D03*
X014230Y004530D03*
X014230Y005530D03*
X013230Y005530D03*
X013230Y004530D03*
X016230Y004530D03*
X016230Y005530D03*
X017230Y005530D03*
X017230Y004530D03*
X017230Y006530D03*
X016230Y006530D03*
X026230Y007030D03*
X027230Y007030D03*
X028230Y007030D03*
X029230Y007030D03*
X030230Y007030D03*
X031230Y007030D03*
X031230Y004030D03*
X030230Y004030D03*
X029230Y004030D03*
X028230Y004030D03*
X027230Y004030D03*
X026230Y004030D03*
X034230Y010530D03*
X034230Y011530D03*
X037730Y011530D03*
X037730Y010530D03*
X037730Y009530D03*
X037730Y008530D03*
X037730Y007530D03*
X037730Y032030D03*
X037730Y033030D03*
X037730Y034030D03*
X034230Y036530D03*
X034230Y037530D03*
X034230Y038530D03*
X033230Y038530D03*
X033230Y037530D03*
X032230Y037530D03*
X032230Y038530D03*
X031230Y038530D03*
X031230Y037530D03*
X031230Y036530D03*
X032230Y036530D03*
X033230Y036530D03*
X029230Y036530D03*
X028230Y036530D03*
X028230Y037530D03*
X028230Y038530D03*
X029230Y038530D03*
X029230Y037530D03*
X017230Y037530D03*
X017230Y038530D03*
X016230Y038530D03*
X016230Y037530D03*
X016230Y036530D03*
X017230Y036530D03*
X015230Y036530D03*
X014230Y036530D03*
X013230Y036530D03*
X013230Y037530D03*
X013230Y038530D03*
X014230Y038530D03*
X014230Y037530D03*
X015230Y037530D03*
X015230Y038530D03*
X012230Y038530D03*
X012230Y037530D03*
X011230Y037530D03*
X011230Y038530D03*
X011230Y036530D03*
X012230Y036530D03*
X007730Y036530D03*
X007730Y037530D03*
X007730Y038530D03*
X006730Y038530D03*
X006730Y037530D03*
X006730Y036530D03*
X002730Y034030D03*
X002730Y033030D03*
D14*
X005230Y033030D03*
X005230Y034530D03*
X009230Y034530D03*
X009230Y033030D03*
X002730Y030030D03*
X002730Y029030D03*
X005580Y026230D03*
X005580Y025230D03*
X026230Y037530D03*
X026230Y038530D03*
X039730Y034030D03*
X039730Y033030D03*
X039730Y010030D03*
X039730Y009030D03*
X032730Y006030D03*
X032730Y005030D03*
D15*
X037730Y035030D03*
D16*
X033730Y022030D03*
X033730Y021030D03*
X033730Y020030D03*
X032730Y020030D03*
X032730Y021030D03*
X032730Y022030D03*
D17*
X033230Y024530D03*
X031730Y025530D03*
X034230Y031030D03*
X036730Y033030D03*
X036730Y034030D03*
X024730Y037530D03*
X022230Y034030D03*
X022230Y033030D03*
X020730Y036530D03*
X018230Y036530D03*
X018230Y037530D03*
X011230Y035530D03*
X010230Y037530D03*
X007730Y035530D03*
X006730Y035530D03*
X004730Y033530D03*
X007230Y031030D03*
X009230Y032030D03*
X011230Y032030D03*
X005730Y038030D03*
X004230Y036530D03*
X006730Y021030D03*
X008730Y020030D03*
X006230Y014530D03*
X008230Y014030D03*
X017730Y014030D03*
X023230Y011030D03*
X023730Y014530D03*
X028230Y008030D03*
X039730Y011030D03*
D18*
X039230Y011530D01*
X039230Y016530D01*
X036230Y019530D01*
X036230Y025030D01*
X035730Y025530D01*
X034230Y025530D01*
X033230Y024530D01*
X031730Y025530D02*
X029730Y023530D01*
X034230Y031030D02*
X017730Y014530D01*
X017730Y014030D01*
X015730Y014030D02*
X008230Y014030D01*
X007730Y016030D02*
X006230Y014530D01*
X007730Y016030D02*
X016730Y016030D01*
X034730Y034030D01*
X036730Y034030D01*
X036730Y033030D02*
X034730Y033030D01*
X015730Y014030D01*
X012230Y020030D02*
X008730Y020030D01*
X006730Y021030D02*
X006730Y027030D01*
X007230Y027530D01*
X011730Y027530D01*
X012730Y028530D01*
X012730Y031530D01*
X015230Y034030D01*
X022230Y034030D01*
X022230Y033030D02*
X015230Y033030D01*
X013730Y031530D01*
X013730Y021530D01*
X012230Y020030D01*
X007230Y031030D02*
X005730Y031030D01*
X004230Y032530D01*
X004230Y036530D01*
X005230Y035530D02*
X004730Y035030D01*
X004730Y033530D01*
X005230Y035530D02*
X006730Y035530D01*
X007730Y035530D02*
X011230Y035530D01*
X010230Y037530D02*
X009730Y038030D01*
X009730Y039530D01*
X009230Y040030D01*
X007230Y040030D01*
X005730Y038530D01*
X005730Y038030D01*
X009230Y032030D02*
X011230Y032030D01*
X018230Y036530D02*
X020730Y036530D01*
X018730Y037030D02*
X018230Y037530D01*
X018730Y037030D02*
X024230Y037030D01*
X024730Y037530D01*
X024730Y014530D02*
X023730Y014530D01*
X024730Y014530D02*
X025730Y013530D01*
X025730Y010530D01*
X028230Y008030D01*
X029730Y006030D02*
X029230Y005530D01*
X023730Y005530D01*
X023230Y006030D01*
X023230Y011030D01*
D19*
X029730Y006030D02*
X029730Y023530D01*
M02*
