%
M48
M72
T01C0.0315
T02C0.0320
T03C0.0354
T04C0.0400
T05C0.1378
T06C0.1969
%
T01
X4230Y12030
X4230Y13030
X5230Y13030
X5230Y12030
X6230Y12030
X6230Y13030
X7230Y13030
X7230Y12030
X8230Y12030
X8230Y13030
X9230Y13030
X9230Y12030
X10230Y12030
X10230Y13030
X11230Y13030
X11230Y12030
X12230Y12030
X12230Y13030
X13230Y13030
X13230Y12030
X14230Y12030
X14230Y13030
X15230Y13030
X15230Y12030
X16230Y12030
X16230Y13030
X17230Y13030
X17230Y12030
X18230Y12030
X18230Y13030
X19230Y13030
X19230Y12030
X20230Y12030
X20230Y13030
X21230Y13030
X21230Y12030
X22230Y12030
X22230Y13030
X23230Y13030
X23230Y12030
X24230Y12030
X24230Y13030
X25230Y13030
X25230Y12030
X26230Y12030
X26230Y13030
X27230Y13030
X27230Y12030
X28230Y12030
X28230Y13030
X28230Y29030
X28230Y30030
X27230Y30030
X27230Y29030
X26230Y29030
X26230Y30030
X25230Y30030
X25230Y29030
X24230Y29030
X24230Y30030
X23230Y30030
X23230Y29030
X22230Y29030
X22230Y30030
X21230Y30030
X21230Y29030
X20230Y29030
X20230Y30030
X19230Y30030
X19230Y29030
X18230Y29030
X18230Y30030
X17230Y30030
X17230Y29030
X16230Y29030
X16230Y30030
X15230Y30030
X15230Y29030
X14230Y29030
X14230Y30030
X13230Y30030
X13230Y29030
X12230Y29030
X12230Y30030
X11230Y30030
X11230Y29030
X10230Y29030
X10230Y30030
X9230Y30030
X9230Y29030
X8230Y29030
X8230Y30030
X7230Y30030
X7230Y29030
X6230Y29030
X6230Y30030
X5230Y30030
X5230Y29030
X4230Y29030
X4230Y30030
T02
X2730Y30030
X2730Y29030
X5580Y26230
X5580Y25230
X5230Y33030
X5230Y34530
X9230Y34530
X9230Y33030
X26230Y37530
X26230Y38530
X39730Y34030
X39730Y33030
X39730Y10030
X39730Y9030
X32730Y6030
X32730Y5030
T03
X28230Y8030
X23230Y11030
X23730Y14530
X17730Y14030
X8730Y20030
X7630Y20230
X7630Y19230
X7630Y18230
X7630Y17230
X6230Y14530
X8230Y14030
X6730Y21030
X7630Y21230
X7630Y22230
X7630Y23230
X7630Y24230
X7630Y25230
X7630Y26230
X7230Y31030
X9230Y32030
X11230Y32030
X11230Y35530
X10230Y37530
X7730Y35530
X6730Y35530
X4730Y33530
X4230Y36530
X5730Y38030
X18230Y37530
X18230Y36530
X20730Y36530
X22230Y34030
X22230Y33030
X24730Y37530
X34230Y31030
X36730Y33030
X36730Y34030
X31730Y25530
X33230Y24530
X39730Y11030
T04
X6230Y4530
X6230Y5530
X7230Y5530
X7230Y4530
X8230Y4530
X8230Y5530
X9230Y5530
X9230Y4530
X10230Y4530
X10230Y5530
X11230Y5530
X11230Y4530
X12230Y4530
X12230Y5530
X12230Y6530
X11230Y6530
X10230Y6530
X9230Y6530
X8230Y6530
X7230Y6530
X6230Y6530
X13230Y6530
X14230Y6530
X15230Y6530
X15230Y5530
X15230Y4530
X14230Y4530
X14230Y5530
X13230Y5530
X13230Y4530
X16230Y4530
X16230Y5530
X17230Y5530
X17230Y4530
X17230Y6530
X16230Y6530
X26230Y7030
X27230Y7030
X28230Y7030
X29230Y7030
X30230Y7030
X31230Y7030
X31230Y4030
X30230Y4030
X29230Y4030
X28230Y4030
X27230Y4030
X26230Y4030
X34230Y10530
X34230Y11530
X37730Y11530
X37730Y10530
X37730Y9530
X37730Y8530
X37730Y7530
X33730Y20030
X33730Y21030
X33730Y22030
X32730Y22030
X32730Y21030
X32730Y20030
X37730Y32030
X37730Y33030
X37730Y34030
X37730Y35030
X34230Y36530
X34230Y37530
X34230Y38530
X33230Y38530
X33230Y37530
X32230Y37530
X32230Y38530
X31230Y38530
X31230Y37530
X31230Y36530
X32230Y36530
X33230Y36530
X29230Y36530
X28230Y36530
X28230Y37530
X28230Y38530
X29230Y38530
X29230Y37530
X17230Y37530
X17230Y38530
X16230Y38530
X16230Y37530
X16230Y36530
X17230Y36530
X15230Y36530
X14230Y36530
X13230Y36530
X13230Y37530
X13230Y38530
X14230Y38530
X14230Y37530
X15230Y37530
X15230Y38530
X12230Y38530
X12230Y37530
X11230Y37530
X11230Y38530
X11230Y36530
X12230Y36530
X7730Y36530
X7730Y37530
X7730Y38530
X6730Y38530
X6730Y37530
X6730Y36530
X2730Y34030
X2730Y33030
T05
X12530Y25730
X12530Y17730
T06
X3980Y21030
X21230Y4030
X38730Y21030
X21330Y38730
M30
