\relax 
\providecommand\hyper@newdestlabel[2]{}
\@writefile{toc}{\contentsline {chapter}{\numberline {1}Introduction}{2}{chapter.1}}
\@writefile{lof}{\addvspace {10\p@ }}
\@writefile{lot}{\addvspace {10\p@ }}
\@writefile{toc}{\contentsline {section}{\numberline {1.1}Background}{2}{section.1.1}}
\@writefile{toc}{\contentsline {section}{\numberline {1.2}Objectives}{2}{section.1.2}}
\@writefile{toc}{\contentsline {section}{\numberline {1.3}Limitations}{2}{section.1.3}}
\@writefile{toc}{\contentsline {section}{\numberline {1.4}Approach}{2}{section.1.4}}
\@writefile{toc}{\contentsline {section}{\numberline {1.5}Structure of the Report}{2}{section.1.5}}
\@setckpt{ch01introduction}{
\setcounter{page}{3}
\setcounter{equation}{0}
\setcounter{enumi}{0}
\setcounter{enumii}{0}
\setcounter{enumiii}{0}
\setcounter{enumiv}{0}
\setcounter{footnote}{0}
\setcounter{mpfootnote}{0}
\setcounter{part}{0}
\setcounter{chapter}{1}
\setcounter{section}{5}
\setcounter{subsection}{0}
\setcounter{subsubsection}{0}
\setcounter{paragraph}{0}
\setcounter{subparagraph}{0}
\setcounter{figure}{0}
\setcounter{table}{0}
\setcounter{r@tfl@t}{0}
\setcounter{parentequation}{0}
\setcounter{NAT@ctr}{0}
\setcounter{Item}{0}
\setcounter{Hfootnote}{0}
\setcounter{bookmark@seq@number}{9}
\setcounter{section@level}{1}
}
