\relax 
\providecommand\hyper@newdestlabel[2]{}
\@writefile{toc}{\contentsline {chapter}{\numberline {5}Design}{6}{chapter.5}}
\@writefile{lof}{\addvspace {10\p@ }}
\@writefile{lot}{\addvspace {10\p@ }}
\@writefile{toc}{\contentsline {section}{\numberline {5.1}Sensors}{6}{section.5.1}}
\@writefile{toc}{\contentsline {section}{\numberline {5.2}Frame}{6}{section.5.2}}
\@writefile{toc}{\contentsline {section}{\numberline {5.3}Motors and motor controllers}{6}{section.5.3}}
\@writefile{toc}{\contentsline {section}{\numberline {5.4}Flight controller}{6}{section.5.4}}
\@writefile{toc}{\contentsline {section}{\numberline {5.5}Wireless interface}{6}{section.5.5}}
\@writefile{toc}{\contentsline {section}{\numberline {5.6}battery}{6}{section.5.6}}
\@setckpt{ch05Design}{
\setcounter{page}{7}
\setcounter{equation}{0}
\setcounter{enumi}{0}
\setcounter{enumii}{0}
\setcounter{enumiii}{0}
\setcounter{enumiv}{0}
\setcounter{footnote}{0}
\setcounter{mpfootnote}{0}
\setcounter{part}{0}
\setcounter{chapter}{5}
\setcounter{section}{6}
\setcounter{subsection}{0}
\setcounter{subsubsection}{0}
\setcounter{paragraph}{0}
\setcounter{subparagraph}{0}
\setcounter{figure}{0}
\setcounter{table}{0}
\setcounter{r@tfl@t}{0}
\setcounter{parentequation}{0}
\setcounter{NAT@ctr}{0}
\setcounter{Item}{0}
\setcounter{Hfootnote}{0}
\setcounter{bookmark@seq@number}{22}
\setcounter{section@level}{1}
}
