\relax 
\providecommand\hyper@newdestlabel[2]{}
\@writefile{toc}{\contentsline {chapter}{\numberline {2}Design}{3}{chapter.2}}
\@writefile{lof}{\addvspace {10\p@ }}
\@writefile{lot}{\addvspace {10\p@ }}
\@writefile{toc}{\contentsline {section}{\numberline {2.1}Sensors}{3}{section.2.1}}
\@writefile{toc}{\contentsline {section}{\numberline {2.2}Frame}{3}{section.2.2}}
\@writefile{toc}{\contentsline {section}{\numberline {2.3}Motors and motor controllers}{3}{section.2.3}}
\@writefile{toc}{\contentsline {section}{\numberline {2.4}Flight controller}{3}{section.2.4}}
\@writefile{toc}{\contentsline {section}{\numberline {2.5}Wireless interface}{3}{section.2.5}}
\@writefile{toc}{\contentsline {section}{\numberline {2.6}Battery}{3}{section.2.6}}
\@setckpt{ch06Design}{
\setcounter{page}{4}
\setcounter{equation}{0}
\setcounter{enumi}{0}
\setcounter{enumii}{0}
\setcounter{enumiii}{0}
\setcounter{enumiv}{0}
\setcounter{footnote}{0}
\setcounter{mpfootnote}{0}
\setcounter{part}{0}
\setcounter{chapter}{2}
\setcounter{section}{6}
\setcounter{subsection}{0}
\setcounter{subsubsection}{0}
\setcounter{paragraph}{0}
\setcounter{subparagraph}{0}
\setcounter{figure}{0}
\setcounter{table}{0}
\setcounter{r@tfl@t}{0}
\setcounter{parentequation}{0}
\setcounter{NAT@ctr}{0}
\setcounter{Item}{0}
\setcounter{Hfootnote}{0}
\setcounter{bookmark@seq@number}{16}
\setcounter{section@level}{1}
}
