\BOOKMARK [1][-]{Doc-Start}{Preface}{}% 1
\BOOKMARK [1][-]{section*.1}{Acknowledgment}{}% 2
\BOOKMARK [1][-]{section*.2}{Summary and Conclusions}{}% 3
\BOOKMARK [0][-]{chapter.1}{Introduction}{}% 4
\BOOKMARK [1][-]{section.1.1}{Background}{chapter.1}% 5
\BOOKMARK [1][-]{section.1.2}{Objectives}{chapter.1}% 6
\BOOKMARK [1][-]{section.1.3}{Limitations}{chapter.1}% 7
\BOOKMARK [1][-]{section.1.4}{Approach}{chapter.1}% 8
\BOOKMARK [1][-]{section.1.5}{Structure of the Report}{chapter.1}% 9
\BOOKMARK [0][-]{chapter.2}{Design}{}% 10
\BOOKMARK [1][-]{section.2.1}{Sensors}{chapter.2}% 11
\BOOKMARK [1][-]{section.2.2}{Frame}{chapter.2}% 12
\BOOKMARK [1][-]{section.2.3}{Motors and motor controllers}{chapter.2}% 13
\BOOKMARK [1][-]{section.2.4}{Flight controller}{chapter.2}% 14
\BOOKMARK [1][-]{section.2.5}{Wireless interface}{chapter.2}% 15
\BOOKMARK [1][-]{section.2.6}{Battery}{chapter.2}% 16
\BOOKMARK [0][-]{chapter.3}{Modeling}{}% 17
\BOOKMARK [0][-]{chapter.4}{Parameters}{}% 18
\BOOKMARK [1][-]{section.4.1}{Inertia matrix}{chapter.4}% 19
\BOOKMARK [1][-]{section.4.2}{Thrust}{chapter.4}% 20
\BOOKMARK [1][-]{section.4.3}{Torque}{chapter.4}% 21
\BOOKMARK [1][-]{section.4.4}{Sensor noise variance}{chapter.4}% 22
\BOOKMARK [0][-]{chapter.5}{Sensor Data Processing}{}% 23
\BOOKMARK [0][-]{chapter.6}{Controller}{}% 24
\BOOKMARK [1][-]{section.6.1}{Roll, Pich and Yaw controller}{chapter.6}% 25
\BOOKMARK [1][-]{section.6.2}{Position controller}{chapter.6}% 26
\BOOKMARK [1][-]{section.6.3}{Controller modes}{chapter.6}% 27
\BOOKMARK [0][-]{chapter.7}{Testing}{}% 28
\BOOKMARK [0][-]{chapter.8}{Summary}{}% 29
\BOOKMARK [1][-]{section.8.1}{Summary and Conclusions}{chapter.8}% 30
\BOOKMARK [1][-]{section.8.2}{Discussion}{chapter.8}% 31
\BOOKMARK [1][-]{section.8.3}{Recommendations for Further Work}{chapter.8}% 32
\BOOKMARK [0][-]{appendix.A}{Acronyms}{}% 33
\BOOKMARK [0][-]{appendix.B}{Additional Information}{}% 34
\BOOKMARK [1][-]{section.B.1}{Introduction}{appendix.B}% 35
\BOOKMARK [2][-]{subsection.B.1.1}{More Details}{section.B.1}% 36
\BOOKMARK [0][-]{subsection.B.1.1}{Bibliography}{}% 37
\BOOKMARK [0][-]{appendix*.8}{Curriculum Vitae}{}% 38
